Advanced Data Manipulation Homework
…
Load the dplyr and readr packages, and read the gapminder data into R using the read_csv() function (n.b. read_csv() is not the same as read.csv()). Assign the data to an object called gm. Run gm to display it.

Note, the code is available by hitting the “Code” button above each expected output, but try not to use it unless you’re stuck.

# Load required libraries
library(dplyr)
library(readr)

# Read the data
gm <- read_csv("data/gapminder.csv")

# Take a look
gm

## # A tibble: 1,704 × 6
##    country     continent  year lifeExp      pop gdpPercap
##    <chr>       <chr>     <dbl>   <dbl>    <dbl>     <dbl>
##  1 Afghanistan Asia       1952    28.8  8425333      779.
##  2 Afghanistan Asia       1957    30.3  9240934      821.
##  3 Afghanistan Asia       1962    32.0 10267083      853.
##  4 Afghanistan Asia       1967    34.0 11537966      836.
##  5 Afghanistan Asia       1972    36.1 13079460      740.
##  6 Afghanistan Asia       1977    38.4 14880372      786.
##  7 Afghanistan Asia       1982    39.9 12881816      978.
##  8 Afghanistan Asia       1987    40.8 13867957      852.
##  9 Afghanistan Asia       1992    41.7 16317921      649.
## 10 Afghanistan Asia       1997    41.8 22227415      635.
## # … with 1,694 more rows
…
What countries and years had life expectancies of at least 80 years? N.b. only output the columns of interest: country, life expectancy and year (in that order).

gm %>%
    filter(lifeExp >= 80) %>%
    select(country, lifeExp, year)

## # A tibble: 22 × 3
##    country          lifeExp  year
##    <chr>              <dbl> <dbl>
##  1 Australia           80.4  2002
##  2 Australia           81.2  2007
##  3 Canada              80.7  2007
##  4 France              80.7  2007
##  5 Hong Kong, China    80    1997
##  6 Hong Kong, China    81.5  2002
##  7 Hong Kong, China    82.2  2007
##  8 Iceland             80.5  2002
##  9 Iceland             81.8  2007
## 10 Israel              80.7  2007
## # … with 12 more rows
…
Which combinations of continent (besides Asia) and year have the highest average population across all countries? N.b. your output should include all results sorted by highest average population. (Hint: filter where continent != Asia, group by two variables, summarize, then arrange.)

gm %>%
    filter(continent != "Asia") %>%
    group_by(continent, year) %>%
    summarise(mean.pop = mean(pop)) %>%
    arrange(desc(mean.pop)) 

## # A tibble: 48 × 3
## # Groups:   continent [4]
##    continent  year  mean.pop
##    <chr>     <dbl>     <dbl>
##  1 Americas   2007 35954847.
##  2 Americas   2002 33990910.
##  3 Americas   1997 31876016.
##  4 Americas   1992 29570964.
##  5 Americas   1987 27310159.
##  6 Americas   1982 25211637.
##  7 Americas   1977 23122708.
##  8 Americas   1972 21175368.
##  9 Europe     2007 19536618.
## 10 Europe     2002 19274129.
## # … with 38 more rows
…
## # A tibble: 3 × 2
##   country               sd.pop
##   <chr>                  <dbl>
## 1 Sao Tome and Principe 45906.
## 2 Iceland               48542.
## 3 Montenegro            99738.

Bonus! Which observations indicate that the population of a country has decreased from the previous year and the life expectancy has increased from the previous year? See the vignette on window functions.

gm %>% 
  arrange(country, year) %>% 
  group_by(country) %>% 
  filter(pop < lag(pop) & lifeExp > lag(lifeExp))

## # A tibble: 36 × 6
## # Groups:   country [22]
##    country                continent  year lifeExp      pop gdpPercap
##    <chr>                  <chr>     <dbl>   <dbl>    <dbl>     <dbl>
##  1 Afghanistan            Asia       1982    39.9 12881816      978.
##  2 Bosnia and Herzegovina Europe     1992    72.2  4256013     2547.
##  3 Bosnia and Herzegovina Europe     1997    73.2  3607000     4766.
##  4 Bulgaria               Europe     2002    72.1  7661799     7697.
##  5 Bulgaria               Europe     2007    73.0  7322858    10681.
##  6 Croatia                Europe     1997    73.7  4444595     9876.
##  7 Czech Republic         Europe     1997    74.0 10300707    16049.
##  8 Czech Republic         Europe     2002    75.5 10256295    17596.
##  9 Czech Republic         Europe     2007    76.5 10228744    22833.
## 10 Equatorial Guinea      Africa     1977    42.0   192675      959.
## # … with 26 more rows
…
