Essential Statistics Homework
…
Stress Tests

Dobutamine is a drug that is used during echocardiograms (aka “stress tests”), which are clinical tests used to estimate heart function. The treatment causes heart rate to increase, and its effects at different dosages were measured in a study published in 1999. We’ll be using the data behind this paper to answer the questions that follow.

# Load libraries
library(readr)
library(dplyr)

# Read data
stress <- read_csv("data/stressEcho.csv")

# Take a look
stress

## # A tibble: 558 × 32
##       id   bhr basebp basedp  pkhr   sbp    dp  dose maxhr pctMphr   mbp dpmaxdo
##    <dbl> <dbl>  <dbl>  <dbl> <dbl> <dbl> <dbl> <dbl> <dbl>   <dbl> <dbl>   <dbl>
##  1     1    92    103   9476   114    86  9804    40   100      74   121   12100
##  2     2    62    139   8618   120   158 18960    40   120      82   158   18960
##  3     3    62    139   8618   120   157 18840    40   120      82   157   18840
##  4     4    93    118  10974   118   105 12390    30   118      72   105   12390
##  5     5    89    103   9167   129   173 22317    40   129      69   176   22704
##  6     6    58    100   5800   123   140 17220    40   123      83   140   17220
##  7     7    63    120   7560    98   130 12740    40    98      71   130   12740
##  8     8    86    161  13846   144   157 22608    40   144     111   157   22608
##  9     9    69    143   9867   115   118 13570    40   113      81   151   17063
## 10    10    76    105   7980   126   125 15750    40   126      94   125   15750
## # … with 548 more rows, and 20 more variables: dobdose <dbl>, age <dbl>,
## #   gender <chr>, baseEF <dbl>, dobEF <dbl>, chestpain <dbl>, restwma <dbl>,
## #   posSE <dbl>, newMI <dbl>, newPTCA <dbl>, newCABG <dbl>, death <dbl>,
## #   hxofHT <dbl>, hxofDM <dbl>, hxofCig <chr>, hxofMI <dbl>, hxofPTCA <dbl>,
## #   hxofCABG <dbl>, any.event <dbl>, ecg <chr>
…
