Tidy Text mining with R
…
## # A tibble: 3 x 2
##    line text                                                    
##   <int> <chr>                                                   
## 1     1 It was the best of times,                               
## 2     2 it was the worse of times,                              
## 3     3 It was the spring of hope, it was the winter of despair.

This data isn’t yet “tidy.” We can’t do the kinds of operations like filter out particular words or summarize operations, for instance, to count which occur most frequently, since each row is made up of multiple combined words. We need to convert this so that it has one-token-per-document-per-row. Here we only have a single document, but later we’ll have multiple documents.

We need to (1) break the text into individual tokens (i.e. tokenization) and transform it to a tidy data structure. To do this, we use tidytext’s unnest_tokens() function.

text_df %>%
  unnest_tokens(output=word, input=text)

## # A tibble: 24 x 2
##     line word 
##    <int> <chr>
##  1     1 it   
##  2     1 was  
##  3     1 the  
##  4     1 best 
##  5     1 of   
##  6     1 times
##  7     2 it   
##  8     2 was  
##  9     2 the  
## 10     2 worse
## # ... with 14 more rows
…
data(stop_words)
stop_words

As in a previous lesson where we did an inner_join to link information across two different tables by a common key, there’s also an anti_join() which takes two tibbles, x and y, and returns all rows from x where there are not matching values in y, keeping just columns from x. Let’s anti_join the data to the stop words. Because we chose “word” as the output variable to unnest_tokens(), and “word” is the variable in the stop_words dataset, we don’t have to be specific about which columns we’re joining.

jatidy %>% 
  anti_join(stop_words)

Now there are far fewer rows than initially present. Let’s run that count again, now with the stop words removed.

jatidy %>%
  anti_join(stop_words) %>% 
  count(word, sort = TRUE) 

## # A tibble: 13,914 x 2
##    word       n
##    <chr>  <int>
##  1 miss    1855
##  2 time    1337
##  3 fanny    862
##  4 dear     822
##  5 lady     817
##  6 sir      806
##  7 day      797
##  8 emma     787
##  9 sister   727
## 10 house    699
## # ... with 13,904 more rows
…
Join it to the NRC sentiment lexicon.

Filter it to only include “joy” words.

Filter for only words in Emma.

Count the number of occurences of each word, sorting the output with the highest on top.

jatidy %>% 
  inner_join(get_sentiments("nrc")) %>% 
  filter(sentiment=="joy") %>% 
  filter(book=="Emma") %>% 
  count(word, sort=TRUE)

## # A tibble: 303 x 2
##    word        n
##    <chr>   <int>
##  1 good      359
##  2 young     192
##  3 friend    166
##  4 hope      143
##  5 happy     125
##  6 love      117
##  7 deal       92
##  8 found      92
##  9 present    89
## 10 kind       82
## # ... with 293 more rows
…
Count the number of occurances of each sentiment (positive vs negative) in each section, for each book.

Spread the sentiment column into new columns, and fill in missing values with zeros.

Create your own summary sentiment score that’s the total number of positive words minus the total number of negative words.

jatidy %>% 
  inner_join(get_sentiments("bing")) %>% 
  mutate(section=linenumber %/% 80) %>%
  count(book, section, sentiment) %>% 
  spread(sentiment, n, fill=0) %>% 
  mutate(sentiment=positive-negative)

## # A tibble: 920 x 5
##    book  section negative positive sentiment
##    <chr>   <dbl>    <dbl>    <dbl>     <dbl>
##  1 Emma        0       31       43        12
##  2 Emma        1       28       33         5
##  3 Emma        2       30       35         5
##  4 Emma        3       27       51        24
##  5 Emma        4       23       46        23
##  6 Emma        5       25       50        25
##  7 Emma        6       25       47        22
##  8 Emma        7       27       63        36
##  9 Emma        8       21       47        26
## 10 Emma        9       11       40        29
## # ... with 910 more rows
…
Try comparing different sentiment lexicons. You might see different results! Different lexicons contain different ratios of positive to negative sentiment words, and thus will give you different results. You would probably want to try a few different lexicons using a known dataset to see what lexicon is most appropriate for your purpose. For more information on this topic, see section 2.3 of the Tidy Text Mining book.

Measuring contribution to sentiment

We could also analyze word counts that contribute to each sentiment. This first joins Jane Austen’s tidy text data to the bing lexicon and counts how many times each word-sentiment linkage exists.

jatidy %>% 
  inner_join(get_sentiments("bing")) %>% 
  count(word, sentiment, sort=TRUE)

## # A tibble: 2,585 x 3
##    word     sentiment     n
##    <chr>    <chr>     <int>
##  1 miss     negative   1855
##  2 well     positive   1523
##  3 good     positive   1380
##  4 great    positive    981
##  5 like     positive    725
##  6 better   positive    639
##  7 enough   positive    613
##  8 happy    positive    534
##  9 love     positive    495
## 10 pleasure positive    462
## # ... with 2,575 more rows
…
Notice that “miss” is probably erroneous here. It’s used as a title for unmarried women in Jane Austen’s works, and should probably be excluded from analysis. You could filter this, or you could create a custom stop words lexicon and add this to it. You could also unnest the corpus using bigrams instead of single words, then filter to look for bigrams that start with “miss,” counting to show the most common ones.

jaorig %>% 
  unnest_tokens(bigram, text, token="ngrams", n=2) %>% 
  filter(str_detect(bigram, "^miss")) %>% 
  count(bigram, sort=TRUE)

## # A tibble: 169 x 2
##    bigram             n
##    <chr>          <int>
##  1 miss crawford    196
##  2 miss woodhouse   143
##  3 miss fairfax      98
##  4 miss bates        92
##  5 miss tilney       74
##  6 miss bingley      67
##  7 miss dashwood     55
##  8 miss bennet       52
##  9 miss morland      50
## 10 miss smith        48
## # ... with 159 more rows
…
Then we simply pipe that to the bind_tf_idf function, giving it the column names for the word, document, and count column (word, book, and n here):

jatidy %>% 
  count(word, book, sort=TRUE) %>% 
  bind_tf_idf(word, book, n)

You’ll see that the idf (and the tf-idf) are zero for really common words. These are all words that appear in all six of Jane Austen’s novels, so the idf is zero. This is how this approach decreases the weight for common words. The inverse document frequency will be a higher number for words that occur in fewer of the documents in the collection. Let’s arrange descending by tf-idf (tf_idf with an underscore).

jatidy %>% 
  count(word, book, sort=TRUE) %>% 
  bind_tf_idf(word, book, n) %>% 
  arrange(desc(tf_idf))

## # A tibble: 40,379 x 6
##    word      book                    n      tf   idf  tf_idf
##    <chr>     <chr>               <int>   <dbl> <dbl>   <dbl>
##  1 elinor    Sense & Sensibility   623 0.00519  1.79 0.00931
##  2 marianne  Sense & Sensibility   492 0.00410  1.79 0.00735
##  3 crawford  Mansfield Park        493 0.00307  1.79 0.00551
##  4 darcy     Pride & Prejudice     373 0.00305  1.79 0.00547
##  5 elliot    Persuasion            254 0.00304  1.79 0.00544
##  6 emma      Emma                  786 0.00488  1.10 0.00536
##  7 tilney    Northanger Abbey      196 0.00252  1.79 0.00452
##  8 weston    Emma                  389 0.00242  1.79 0.00433
##  9 bennet    Pride & Prejudice     294 0.00241  1.79 0.00431
## 10 wentworth Persuasion            191 0.00228  1.79 0.00409
## # ... with 40,369 more rows
…
library(gutenbergr)
sci <- gutenberg_download(c(37729, 14725, 13476, 1228), meta_fields = "author")

Now that we have the texts, let’s use unnest_tokens() and count() to find out how many times each word was used in each text. Let’s assign this to an object called sciwords. Let’s go ahead and add the tf-idf also.

scitidy <- sci %>% 
  unnest_tokens(word, text)

sciwords <- scitidy %>%
  count(word, author, sort = TRUE) %>%
  bind_tf_idf(word, author, n)
sciwords

## # A tibble: 16,992 x 6
##    word  author                  n     tf   idf tf_idf
##    <chr> <chr>               <int>  <dbl> <dbl>  <dbl>
##  1 the   Darwin, Charles     10287 0.0656     0      0
##  2 of    Darwin, Charles      7849 0.0501     0      0
##  3 and   Darwin, Charles      4439 0.0283     0      0
##  4 in    Darwin, Charles      4016 0.0256     0      0
##  5 the   Galilei, Galileo     3760 0.0935     0      0
##  6 to    Darwin, Charles      3605 0.0230     0      0
##  7 the   Tesla, Nikola        3604 0.0913     0      0
##  8 the   Huygens, Christiaan  3553 0.0928     0      0
##  9 a     Darwin, Charles      2470 0.0158     0      0
## 10 that  Darwin, Charles      2083 0.0133     0      0
## # ... with 16,982 more rows
…
First let’s use the LDA() function from the topicmodels package, setting k = 2, to create a two-topic LDA model. This function returns an object containing the full details of the model fit, such as how words are associated with topics and how topics are associated with documents. Fitting the model is easy. For the rest of this section we’ll be exploring and interpreting the model.

# set a seed so that the output of the model is predictable
ap_lda <- LDA(AssociatedPress, k = 2, control=list(seed=1234))
ap_lda

Word-topic probabilities

Displaying the model itself, ap_lda isn’t that interesting. The tidytext package provides a tidy method for extracting the per-topic-per-word probabilities, called \(\beta\) (“beta”), from the model.

ap_topics <- tidy(ap_lda, matrix = "beta")
ap_topics

## # A tibble: 20,946 x 3
##    topic term           beta
##    <int> <chr>         <dbl>
##  1     1 aaron      1.69e-12
##  2     2 aaron      3.90e- 5
##  3     1 abandon    2.65e- 5
##  4     2 abandon    3.99e- 5
##  5     1 abandoned  1.39e- 4
##  6     2 abandoned  5.88e- 5
##  7     1 abandoning 2.45e-33
##  8     2 abandoning 2.34e- 5
##  9     1 abbott     2.13e- 6
## 10     2 abbott     2.97e- 5
## # ... with 20,936 more rows
…
We can see that the words more common in topic 2 include political parties such as “democratic” and “republican”, as well as politician’s names such as “dukakis” and “gorbachev”. Topic 1 was more characterized by currencies like “yen” and “dollar”, as well as financial terms such as “index”, “prices” and “rates”. This helps confirm that the two topics the algorithm identified were political and financial news.

Document-topic probabilities

Above we estimated the per-topic-per-word probabilities, \(\beta\) (“beta”). LDA also models each document as a mixture of topics. Let’s look at the per-document-per-topic probabilities, \(\gamma\) (“gamma”), with the matrix = "gamma" argument to tidy().

ap_documents <- tidy(ap_lda, matrix = "gamma")
ap_documents

## # A tibble: 4,492 x 3
##    document topic    gamma
##       <int> <int>    <dbl>
##  1        1     1 0.248   
##  2        2     1 0.362   
##  3        3     1 0.527   
##  4        4     1 0.357   
##  5        5     1 0.181   
##  6        6     1 0.000588
##  7        7     1 0.773   
##  8        8     1 0.00445 
##  9        9     1 0.967   
## 10       10     1 0.147   
## # ... with 4,482 more rows

These values represent the estimated proportion of words from that document that are generated from that topic. For example, the the model estimates only about 24.8% of the words in document 1 were generated from topic 1.

Most of these documents were drawn from a mix of the two topics, but document 6 was drawn almost entirely from topic 2, having a \(\gamma\) from topic 1 close to zero. To check this answer, we could tidy() the document-term matrix.

tidy(AssociatedPress) %>%
  filter(document == 6) %>%
  arrange(desc(count))

## # A tibble: 287 x 3
##    document term           count
##       <int> <chr>          <dbl>
##  1        6 noriega           16
##  2        6 panama            12
##  3        6 jackson            6
##  4        6 powell             6
##  5        6 administration     5
##  6        6 economic           5
##  7        6 general            5
##  8        6 i                  5
##  9        6 panamanian         5
## 10        6 american           4
## # ... with 277 more rows
…
